[32mINFO    [0m d:\PytestAutoApi\logs\info-2025-04-17.log:test_banner_list.py:23 data: {'url': 'http://47.107.113.31:18090/prod-api/system/bannerConfigInfo/list', 'method': 'POST', 'detail': '获取banner列表', 'assert_data': {'code': {'jsonpath': '$.code', 'type': '==', 'value': 200, 'AssertType': None, 'message': '登录失败'}, 'username': {'jsonpath': '$.msg', 'type': 'contains', 'value': '查询成功', 'AssertType': None}}, 'headers': {'Content-Language': 'zh_CN', 'Authorization': '$cache{token}'}, 'requestType': 'JSON', 'is_run': None, 'data': {'pageQuery': {'pageSize': 10, 'pageNum': 1, 'orderByColumn': '', 'isAsc': ''}, 'paramData': {'appSource': '', 'bannerName': '', 'bannerType': '', 'putOnShelves': '', 'bannerScope': ''}}, 'dependence_case': False, 'dependence_case_data': None, 'sql': None, 'setup_sql': None, 'status_code': None, 'teardown_sql': None, 'teardown': None, 'current_request_set_cache': [{'type': 'response', 'jsonpath': '$.rows[0].bannerId', 'name': 'banner_list_02_bannerId'}], 'sleep': None}
[32mINFO    [0m d:\PytestAutoApi\logs\info-2025-04-17.log:dependent_case.py:164 _dependent_type: False
[32mINFO    [0m d:\PytestAutoApi\logs\info-2025-04-17.log:dependent_case.py:165 _dependence_case_datas: None
[32mINFO    [0m d:\PytestAutoApi\logs\info-2025-04-17.log:log_decorator.py:32 
======================================================
用例标题: 获取banner列表
请求路径: http://47.107.113.31:18090/prod-api/system/bannerConfigInfo/list
请求方式: POST
请求头:   {'User-Agent': 'python-requests/2.32.3', 'Accept-Encoding': 'gzip, deflate', 'Accept': '*/*', 'Connection': 'keep-alive', 'Content-Language': 'zh_CN', 'Authorization': 'Bearer eyJ0eXAiOiJKV1QiLCJhbGciOiJIUzI1NiJ9.eyJsb2dpblR5cGUiOiJsb2dpbiIsImxvZ2luSWQiOiJzeXNfdXNlcjoxNjU5MzkxNjY2MjU0NzA0NjQyIiwicm5TdHIiOiJHdFo5dUVJNmVnaTBFUlRvb2NYN3lFY05LS1JScnVBNSIsInVzZXJJZCI6MTY1OTM5MTY2NjI1NDcwNDY0Mn0.w650eptT93Uc0_2BhC_C4e7VYHdlTxTJoahPx9OW5Ag', 'Content-Length': '186', 'Content-Type': 'application/json'}
请求内容: {'pageQuery': {'pageSize': 10, 'pageNum': 1, 'orderByColumn': '', 'isAsc': ''}, 'paramData': {'appSource': '', 'bannerName': '', 'bannerType': '', 'putOnShelves': '', 'bannerScope': ''}}
接口响应内容: {"pageSize":10,"pageNum":1,"totalPage":7,"total":64,"rows":[{"createBy":"test02","createTime":1736155726507,"updateBy":"test02","updateTime":1736155726507,"appBannerConfigInfoId":"1876199218766475266","bannerId":"bid4s149fmba474eriqnr","bannerType":"ad","bannerName":"2025-01-06 17:28:46","appSource":"WOpet","parentUserId":"1659391666254704642","bannerImageUrl":"https://uspublic.s3.us-west-1.amazonaws.com/bannerImage/2025/01/06/gifpic_20250106092844347.gif","startTime":1721232000000,"endTime":1723564800000,"countDownStartTime":1721232001000,"countDownEndTime":1723270303000,"sort":4,"jumpPageType":2,"jumpPagePath":"https://www.baidu.com/s?word=%E5%A5%A5%E8%BF%90%E4%BC%9A&rsv_dl=ay24_pd_gkpc","jumpPageShare":1,"systemTypeAndroid":1,"androidVersionId":0,"systemTypeIos":1,"iosVersionId":0,"bannerScope":1,"putOnShelves":0,"remark":"","bannerCountryCodeList":["ALL"],"bannerPetConfig":null,"bannerProductConfig":null,"isDelete":1},{"createBy":"test02","createTime":1736155621544,"updateBy":"test02","updateTime":1736155621544,"appBannerConfigInfoId":"1876198778523938817","bannerId":"bidr52ed67wyh98937wls","bannerType":"ad","bannerName":"2025-01-06 17:27:01","appSource":"WOpet","parentUserId":"1659391666254704642","bannerImageUrl":"https://uspublic.s3.us-west-1.amazonaws.com/bannerImage/2025/01/06/gifpic_20250106092659645.gif","startTime":1721232000000,"endTime":1723564800000,"countDownStartTime":1721232001000,"countDownEndTime":1723270303000,"sort":4,"jumpPageType":2,"jumpPagePath":"https://www.baidu.com/s?word=%E5%A5%A5%E8%BF%90%E4%BC%9A&rsv_dl=ay24_pd_gkpc","jumpPageShare":1,"systemTypeAndroid":1,"androidVersionId":0,"systemTypeIos":1,"iosVersionId":0,"bannerScope":1,"putOnShelves":0,"remark":"","bannerCountryCodeList":["ALL"],"bannerPetConfig":null,"bannerProductConfig":null,"isDelete":1},{"createBy":"test02","createTime":1736153789646,"updateBy":"test02","updateTime":1736153789646,"appBannerConfigInfoId":"1876191094986829825","bannerId":"bid06c1k2g2bgwtw3izeh","bannerType":"ad","bannerName":"2025-01-06 16:56:29","appSource":"WOpet","parentUserId":"1659391666254704642","bannerImageUrl":"https://uspublic.s3.us-west-1.amazonaws.com/bannerImage/2025/01/06/gifpic_20250106085626923.gif","startTime":1721232000000,"endTime":1723564800000,"countDownStartTime":1721232001000,"countDownEndTime":1723270303000,"sort":4,"jumpPageType":2,"jumpPagePath":"https://www.baidu.com/s?word=%E5%A5%A5%E8%BF%90%E4%BC%9A&rsv_dl=ay24_pd_gkpc","jumpPageShare":1,"systemTypeAndroid":1,"androidVersionId":0,"systemTypeIos":1,"iosVersionId":0,"bannerScope":1,"putOnShelves":0,"remark":"","bannerCountryCodeList":["ALL"],"bannerPetConfig":null,"bannerProductConfig":null,"isDelete":1},{"createBy":"test02","createTime":1736153430344,"updateBy":"test02","updateTime":1736153430344,"appBannerConfigInfoId":"1876189587960819713","bannerId":"bid2aretowpyqqxxobw6h","bannerType":"ad","bannerName":"2025-01-06 16:50:30","appSource":"WOpet","parentUserId":"1659391666254704642","bannerImageUrl":"https://uspublic.s3.us-west-1.amazonaws.com/bannerImage/2025/01/06/gifpic_20250106085026615.gif","startTime":1721232000000,"endTime":1723564800000,"countDownStartTime":1721232001000,"countDownEndTime":1723270303000,"sort":4,"jumpPageType":2,"jumpPagePath":"https://www.baidu.com/s?word=%E5%A5%A5%E8%BF%90%E4%BC%9A&rsv_dl=ay24_pd_gkpc","jumpPageShare":1,"systemTypeAndroid":1,"androidVersionId":0,"systemTypeIos":1,"iosVersionId":0,"bannerScope":1,"putOnShelves":0,"remark":"","bannerCountryCodeList":["ALL"],"bannerPetConfig":null,"bannerProductConfig":null,"isDelete":1},{"createBy":"test02","createTime":1722998219153,"updateBy":"test02","updateTime":1722998219153,"appBannerConfigInfoId":"1821012633041563650","bannerId":"bidzyoylm1wogdza36yr8","bannerType":"ad","bannerName":"test_2024-08-07 10:36:59","appSource":"WOpet","parentUserId":"1659391666254704642","bannerImageUrl":"https://uspublic.s3.us-west-1.amazonaws.com/bannerImage/2024/07/16/清凉一夏 夏天海边风景 绿树 草地 蓝天白云4K壁纸_彼岸图网_20240716062933114.jpg","startTime":1724860800000,"endTime":1726243200000,"countDownStartTime":1724860800000,"countDownEndTime":1725638400000,"sort":20,"jumpPageType":3,"jumpPagePath":"","jumpPageShare":null,"systemTypeAndroid":1,"androidVersionId":0,"systemTypeIos":1,"iosVersionId":0,"bannerScope":1,"putOnShelves":1,"remark":null,"bannerCountryCodeList":["PR","PS","PT","PW","PY","QA","AD","AE","AF","AG","AI","AL","AM","AO","AR","AS","AT","RE","AU","AW","AX","AZ","RO","BA","BB","RS","BD","BE","RU","BF","BG","RW","BH","BI","BJ","BL","BM","BN","BO","SA","SB","BR","SC","BS","BT","SE","SG","BW","SI","BY","SJ","BZ","SK","SL","SM","SN","SO","CA","SR","CD","ST","CF","SV","CG","SX","CH","CI","SZ","CK","CL","CM","CN","CO","CR","TC","TD","CV","TG","CW","TH","CY","TJ","CZ","TK","TL","TM","TN","TO","TR","TT","DE","TV","TW","DJ","TZ","DK","DM","DO","UA","UG","DZ","EC","US","EE","EG","UY","UZ","VA","ER","VC","ES","ET","VE","VG","VI","VN","VU","FI","FJ","FK","FM","FO","FR","WF","GA","GB","WS","GD","GE","GF","GH","GI","GL","GM","GN","GP","GQ","GR","GT","GU","GW","GY","HK","HN","HR","HT","YE","HU","ID","YT","IE","IL","IM","IN","IO","ZA","IQ","IS","IT","ZM","NCL","ZR","ZW","JM","JO","JP","KE","KG","KH","KI","KM","KN","KR","KW","KY","KZ","LA","LB","LC","LI","LK","LR","LS","LT","LU","LV","LY","MA","MC","MD","ME","MF","MG","MH","MK","ML","MM","MN","MO","MP","MQ","MR","MS","MT","MU","MV","MW","MX","MY","MZ","NA","NE","NF","NG","NI","NL","NO","NP","NR","NU","NZ","OM","PA","PE","PF","PG","PH","PK","PL","PM"],"bannerPetConfig":null,"bannerProductConfig":null,"isDelete":1},{"createBy":"test02","createTime":1722591442070,"updateBy":"test02","updateTime":1722591442070,"appBannerConfigInfoId":"1819306486299422721","bannerId":"bid6r05v41vswffgkdj55","bannerType":"ad","bannerName":"wwwwwwww","appSource":"WOpet","parentUserId":"1659391666254704642","bannerImageUrl":"https://uspublic.s3.us-west-1.amazonaws.com/bannerImage/2024/08/02/gifpic_20240802093719455.gif","startTime":1724860800000,"endTime":1726848000000,"countDownStartTime":1724860800000,"countDownEndTime":1725638400000,"sort":5,"jumpPageType":2,"jumpPagePath":"https://www.baidu.com/s?word=%E5%A5%A5%E8%BF%90%E4%BC%9A&rsv_dl=ay24_pd_gkpc","jumpPageShare":0,"systemTypeAndroid":1,"androidVersionId":0,"systemTypeIos":1,"iosVersionId":0,"bannerScope":1,"putOnShelves":1,"remark":null,"bannerCountryCodeList":["PR","PS","PT","PW","PY","QA","AD","AE","AF","AG","AI","AL","AM","AO","AR","AS","AT","RE","AU","AW","AX","AZ","RO","BA","BB","RS","BD","BE","RU","BF","BG","RW","BH","BI","BJ","BL","BM","BN","BO","SA","SB","BR","SC","BS","BT","SE","SG","BW","SI","BY","SJ","BZ","SK","SL","SM","SN","SO","CA","SR","CD","ST","CF","SV","CG","SX","CH","CI","SZ","CK","CL","CM","CN","CO","CR","TC","TD","CV","TG","CW","TH","CY","TJ","CZ","TK","TL","TM","TN","TO","TR","TT","DE","TV","TW","DJ","TZ","DK","DM","DO","UA","UG","DZ","EC","US","EE","EG","UY","UZ","VA","ER","VC","ES","ET","VE","VG","VI","VN","VU","FI","FJ","FK","FM","FO","FR","WF","GA","GB","WS","GD","GE","GF","GH","GI","GL","GM","GN","GP","GQ","GR","GT","GU","GW","GY","HK","HN","HR","HT","YE","HU","ID","YT","IE","IL","IM","IN","IO","ZA","IQ","IS","IT","ZM","NCL","ZR","ZW","JM","JO","JP","KE","KG","KH","KI","KM","KN","KR","KW","KY","KZ","LA","LB","LC","LI","LK","LR","LS","LT","LU","LV","LY","MA","MC","MD","ME","MF","MG","MH","MK","ML","MM","MN","MO","MP","MQ","MR","MS","MT","MU","MV","MW","MX","MY","MZ","NA","NE","NF","NG","NI","NL","NO","NP","NR","NU","NZ","OM","PA","PE","PF","PG","PH","PK","PL","PM"],"bannerPetConfig":null,"bannerProductConfig":null,"isDelete":1},{"createBy":"test02","createTime":1722591441956,"updateBy":"test02","updateTime":1722591441956,"appBannerConfigInfoId":"1819306485821272066","bannerId":"bidqlzvwihbzbud45rtf5","bannerType":"ad","bannerName":"2024-08-02 17:37:21","appSource":"WOpet","parentUserId":"1659391666254704642","bannerImageUrl":"https://uspublic.s3.us-west-1.amazonaws.com/bannerImage/2024/08/02/gifpic_20240802093719455.gif","startTime":1721232000000,"endTime":1723564800000,"countDownStartTime":1721232001000,"countDownEndTime":1722787201000,"sort":4,"jumpPageType":2,"jumpPagePath":"https://www.baidu.com/s?word=%E5%A5%A5%E8%BF%90%E4%BC%9A&rsv_dl=ay24_pd_gkpc","jumpPageShare":1,"systemTypeAndroid":1,"androidVersionId":0,"systemTypeIos":1,"iosVersionId":0,"bannerScope":1,"putOnShelves":0,"remark":"","bannerCountryCodeList":["ALL"],"bannerPetConfig":null,"bannerProductConfig":null,"isDelete":1},{"createBy":"test02","createTime":1722591441853,"updateBy":"test02","updateTime":1722591441853,"appBannerConfigInfoId":"1819306485389258753","bannerId":"bidv2wnk2d26ntuh0kelz","bannerType":"ad","bannerName":"2024-08-02 17:37:21","appSource":"WOpet","parentUserId":"1659391666254704642","bannerImageUrl":"https://uspublic.s3.us-west-1.amazonaws.com/bannerImage/2024/08/02/gifpic_20240802093719455.gif","startTime":1721232000000,"endTime":1723564800000,"countDownStartTime":1721232001000,"countDownEndTime":1722787201000,"sort":4,"jumpPageType":2,"jumpPagePath":"https://www.baidu.com/s?word=%E5%A5%A5%E8%BF%90%E4%BC%9A&rsv_dl=ay24_pd_gkpc","jumpPageShare":1,"systemTypeAndroid":1,"androidVersionId":0,"systemTypeIos":1,"iosVersionId":0,"bannerScope":1,"putOnShelves":1,"remark":"","bannerCountryCodeList":["ALL"],"bannerPetConfig":null,"bannerProductConfig":null,"isDelete":1},{"createBy":"test02","createTime":1722591441746,"updateBy":"test02","updateTime":1722591441746,"appBannerConfigInfoId":"1819306484940468225","bannerId":"bid01ujnjzi3c9nz5i7be","bannerType":"ad","bannerName":"2024-08-02 17:37:21","appSource":"WOpet","parentUserId":"1659391666254704642","bannerImageUrl":"https://uspublic.s3.us-west-1.amazonaws.com/bannerImage/2024/08/02/gifpic_20240802093719455.gif","startTime":1721232000000,"endTime":1723564800000,"countDownStartTime":1721232001000,"countDownEndTime":1722787201000,"sort":4,"jumpPageType":2,"jumpPagePath":"https://www.baidu.com/s?word=%E5%A5%A5%E8%BF%90%E4%BC%9A&rsv_dl=ay24_pd_gkpc","jumpPageShare":1,"systemTypeAndroid":1,"androidVersionId":0,"systemTypeIos":1,"iosVersionId":0,"bannerScope":1,"putOnShelves":0,"remark":"","bannerCountryCodeList":["ALL"],"bannerPetConfig":null,"bannerProductConfig":null,"isDelete":1},{"createBy":"test02","createTime":1722591441640,"updateBy":"test02","updateTime":1722591441640,"appBannerConfigInfoId":"1819306484495872002","bannerId":"bid3y2h1sitxqztxoywt5","bannerType":"ad","bannerName":"2024-08-02 17:37:21","appSource":"WOpet","parentUserId":"1659391666254704642","bannerImageUrl":"https://uspublic.s3.us-west-1.amazonaws.com/bannerImage/2024/08/02/gifpic_20240802093719455.gif","startTime":1721232000000,"endTime":1723564800000,"countDownStartTime":1721232001000,"countDownEndTime":1722787201000,"sort":4,"jumpPageType":2,"jumpPagePath":"https://www.baidu.com/s?word=%E5%A5%A5%E8%BF%90%E4%BC%9A&rsv_dl=ay24_pd_gkpc","jumpPageShare":1,"systemTypeAndroid":1,"androidVersionId":0,"systemTypeIos":1,"iosVersionId":0,"bannerScope":1,"putOnShelves":0,"remark":"","bannerCountryCodeList":["ALL"],"bannerPetConfig":null,"bannerProductConfig":null,"isDelete":1}],"code":200,"msg":"查询成功"}
接口响应时长: 121.03 ms
Http状态码: 200
=====================================================